flumodelr: Data
…
https://www.cdc.gov/flu/weekly/overview.htm

cdc122 <- (flumodelr::cdc122city)  
dim(cdc122)
#> [1] 346342      8
cdc122
#> # A tibble: 346,342 x 8
#>   region state city    year  week deaths_pnaflu deaths_allcause deaths_65~
#>    <int> <chr> <chr>  <int> <int>         <int>           <int>      <int>
#> 1      1 MA    Boston  1962     1            11             262        146
#> 2      1 MA    Boston  1962     2            11             270        167
#> 3      1 MA    Boston  1962     3             5             237        142
#> 4      1 MA    Boston  1962     4            12             285        175
#> # ... with 346,338 more rows
…
The CDC cautions against cross-sectional evaluations:

The number of specimens tested and % positive rate vary by region and season based on different testing practices including triaging of specimens > by the reporting labs, therefore it is not appropriate to compare the magnitude of positivity rates or the number of positive specimens between regions or seasons.

Regarding subtype:

The U.S. WHO and NREVSS collaborating laboratories report the total number > of respiratory specimens tested and the number positive for influenza types > A and B each week to CDC. Most of the U.S. WHO collaborating laboratories also report the influenza A subtype (H1 or H3) of the viruses they have isolated, but the majority of NREVSS laboratories do not report the influenza A subtype.

For more information: http://www.cdc.gov/flu/weekly/overview.htm#Viral

nrevss <- (flumodelr::nrevss)  
dim(nrevss)
#> [1] 14094    12
nrevss
#> # A tibble: 14,094 x 12
#>   state   year  week spec~ spec~ type~ type~ type~ type~ type~ type~ type~
#>   <chr>  <int> <int> <int> <dbl> <int> <int> <int> <int> <int> <int> <int>
#> 1 Alaba~  2010    40    54  0        0     0     0     0     0     0     0
#> 2 Alaska  2010    40    40  0        0     0     0     0     0     0     0
#> 3 Arizo~  2010    40    40  2.50     0     0     1     0     0     0     0
#> 4 Arkan~  2010    40    15  0        0     0     0     0     0     0     0
#> # ... with 14,090 more rows
…
CDC Website Description

Outpatient Illness Surveillance — Information on patient visits to health care providers for influenza-like illness is collected through the U.S. Outpatient Influenza-like Illness Surveillance Network (ILINet).

CDC cautions regarding cross-sectional comparisons:

The number and percent of patients presenting with ILI each week will vary > by region and season due to many factors, including having different provider type mixes (children present with higher rates of ILI than adults, > and therefore regions with a higher percentage of pediatric practices will have higher numbers of cases). Therefore it is not appropriate to compare the magnitude of the percent of visits due to ILI between regions and seasons.

For more information, see: http://www.cdc.gov/flu/weekly/overview.htm#Outpatient

ilinet <- (flumodelr::ilinet)  
dim(ilinet)
#> [1] 19556     7
ilinet
#> # A tibble: 19,556 x 7
#>   state     year  week ili_perc ili_tot providers patients
#>   <chr>    <int> <int>    <dbl>   <int>     <int>    <int>
#> 1 Alabama   2010    40    2.13      249        35    11664
#> 2 Alaska    2010    40    0.875      15         7     1714
#> 3 Arizona   2010    40    0.675     172        49    25492
#> 4 Arkansas  2010    40    0.696      18        15     2586
#> # ... with 19,552 more rows
…
  #Last Date of Week
    d1 = startweek + (weeknum - 1) * 7 + 6 
  
  return(list(d0 = ymd(d0), d1 = ymd(d1)))
}

example <- cdc122 %>%
  mutate(FirstDateOfWeek = EpiWeekToDates(year, week)[[1]])

example %>% select(year, week, FirstDateOfWeek) %>% 
  distinct() %>% 
  filter(year>2010)
#> # A tibble: 300 x 3
#>    year  week FirstDateOfWeek
#>   <int> <int> <date>         
#> 1  2011     1 2011-01-02     
#> 2  2011     2 2011-01-09     
#> 3  2011     3 2011-01-16     
#> 4  2011     4 2011-01-23     
#> # ... with 296 more rows
