Serfling Model Background
…
Quantify values in excess of threshold

Step-wise example

The flumodelr function serflm will perform the above steps. We present the individual steps here for demonstration.

It is assumed the influenza epidemic period begins Oct. 1st, and ends May 31st. This is a conventional “flu” season in the U.S. However individual areas / regions may justify tailored periods. These assumptions are modifiable as options in the regression function.

Step 1. Formatted Influenza data

The input dataframe must have time vector, indicator for the epidemic period (Oct. - May), and measure of influenza morbidity / mortality to be modeled.

flu_ex %>% select(yrweek_dt, epi, fludeaths)
#> # A tibble: 260 x 3
#>    yrweek_dt   epi fludeaths
#>       <date> <lgl>     <dbl>
#> 1 2010-10-04  TRUE  6.564815
#> 2 2010-10-11  TRUE  5.937500
#> 3 2010-10-18  TRUE  6.482143
#> 4 2010-10-25  TRUE  6.605505
#> # ... with 256 more rows
…
pred_y0 <- df_pred$fit[,1] #fitted values
pred_y0_uci <- df_pred$fit[,3] #95% UCI
pred_y0_serf <- df_pred$fit[,1] + 
                  1.64*sd(df_pred$fit[,1]) #Fitted line + 1.64 SD

df_base <- df %>%
  add_column(., pred_y0, pred_y0_uci, pred_y0_serf)  

df_base %>% select(year, week, fludeaths, 
                   pred_y0, pred_y0_uci, pred_y0_serf)  
#> # A tibble: 260 x 6
#>    year  week fludeaths  pred_y0 pred_y0_uci pred_y0_serf
#>   <int> <int>     <dbl>    <dbl>       <dbl>        <dbl>
#> 1  2010    40  6.564815 7.940499    9.745928     9.518817
#> 2  2010    41  5.937500 7.985885    9.741258     9.564203
#> 3  2010    42  6.482143 8.038152    9.747843     9.616470
#> 4  2010    43  6.605505 8.095861    9.764466     9.674179
#> # ... with 256 more rows
…
  mutate(threshold = if_else(fludeaths > pred_y0_uci, T, F),
         epidemic = if_else(threshold==T & lead(threshold)==T, T, NA),
         epidemic2 = if_else(lag(epidemic)==T & threshold==T, T, epidemic),
         epidemic3 = if_else(lag(epidemic2)==T & lead(threshold)==T, T, epidemic2),
         epidemic4 = if_else(lag(epidemic3)==T & threshold==T, T, epidemic3),
         epidemic5 = coalesce(epidemic4, F)) %>%
  rowwise() %>%
  mutate(epidemic = if_else(sum(epidemic, epidemic2, epidemic3, 
                                   epidemic4, epidemic5, na.rm=T)>0, T, F),
         excess = if_else(epidemic==T & (fludeaths - pred_y0_uci)>0, fludeaths - pred_y0_uci, 0))
df_epi %>% select(year, week, threshold, epidemic, excess)
#> Source: local data frame [260 x 5]
#> Groups: <by row>
#> 
#> # A tibble: 260 x 5
#>    year  week threshold epidemic excess
#>   <int> <int>     <lgl>    <lgl>  <dbl>
#> 1  2010    40     FALSE    FALSE      0
#> 2  2010    41     FALSE    FALSE      0
#> 3  2010    42     FALSE    FALSE      0
#> 4  2010    43     FALSE    FALSE      0
#> # ... with 256 more rows
…
