Incidence rate-difference models
…
Options c and d can be used in the absense of laboratory confirmed influenza surveillance data to define high and low viral activity periods.

Annual excess numbers

Weekly excess outcome rates will be converted to annual excess numbers of outcomes by using the number of weeks that were above an epidemic threshold, and available US census data:

annual excess [outcomes] = (excess weekly rate) x (number of epidemic weeks) x (population).

Example: peri-season adjusted influenza attributable mortality

In this example we will estimate influenza attributable mortality using a peri-season adjustment. We will adjust mortality in weeks with high viral activity (a) with weeks when viral activity was low (b). All we have is a dataset with surveillance data (‘prop_flupos’) in a certain calendar ‘year’ and ‘week’, plus the observed number of all cause hospitalizations in that week (‘alldeaths’).

fludta %>% select(year,week,alldeaths,prop_flupos,week)
#> # A tibble: 2,857 x 4
#>    year  week alldeaths prop_flupos
#>   <dbl> <dbl>     <dbl>       <dbl>
#> 1  1962     1     13033          NA
#> 2  1962     2     13238          NA
#> 3  1962     3     13324          NA
#> 4  1962     4     13241          NA
#> # ... with 2,853 more rows
…
The initial function prepares the dataset by identifying periods of high and low viral activity in the respiratory season. It creates the table fludta_mod, adding 3 varables (columns): respiratory ‘season’, ‘high[,“prop_flupos”]’ (TRUE = high viral activity, FALSE = low viral activity), and ‘fluseason’ (TRUE = flu season, FALSE = summer-season baseline)

fludta_mod %>% select(year,week,alldeaths,prop_flupos,week, season, high, fluseason)
#> # A tibble: 2,857 x 7
#>    year  week alldeaths prop_flupos season high[,"prop_flupos"] fluseason
#>   <dbl> <dbl>     <dbl>       <dbl>  <dbl> <lgl>                <lgl>    
#> 1  1962     1     13033          NA   1961 NA                   TRUE     
#> 2  1963     1     13260          NA   1962 NA                   TRUE     
#> 3  1964     1     13861          NA   1963 NA                   TRUE     
#> 4  1965     1     14429          NA   1964 NA                   TRUE     
#> # ... with 2,853 more rows

Note that ‘high[,“prop_flupos”]’ will not be created if ird(viral= missing).

Step 2. rb() function

fludta_rates <- rb(data =fludta_mod, outc =alldeaths, echo = T)
#> Setting rb parameters...
#>  'outc' argument is: alldeaths

The rb() function aggregates the outcomes per time period (weeks in our example) to outcomes per respiratory season, stratified by period of high and low viral activity, and excess rates (period = “High” - period = “Low”).

fludta_rates
#> # A tibble: 166 x 4
#>   season period alldeaths_fluseason alldeaths_viral_act
#>    <dbl> <fct>                <dbl>               <dbl>
#> 1   1961 Excess               1230.                  NA
#> 2   1961 Low                 11557.                  NA
#> 3   1961 High                12787.                  NA
#> 4   1962 Excess               1555.                  NA
#> # ... with 162 more rows
…
