Serfling Model Background
…
Step-wise example

The flumodelr function serflm will perform the above steps. We present the individual steps here for demonstration.

It is assumed the influenza epidemic period begins Oct. 1st, and ends May 31st. This is a conventional “flu” season in the U.S. However individual areas / regions may justify tailored periods. These assumptions are modifiable as options in the regression function.

Step 1. Formatted Influenza data

To compute a traditional Serfling model. The input dataframe must have time vector, indicator for the epidemic period (Oct. - May), and measure of influenza morbidity / mortality to be modeled.

cat("Example data")
#> Example data
flu_ex %>% select(yrweek_dt, fludeaths)
#> # A tibble: 259 x 2
#>    yrweek_dt fludeaths
#>       <date>     <dbl>
#> 1 2010-10-18  6.482143
#> 2 2010-10-25  6.605505
#> 3 2010-11-01  6.779817
#> 4 2010-11-08  6.581818
#> # ... with 255 more rows

serflm() Will allow you to specify the boundaries for epidemic periods, and then compute the baseline off of non-epidemic timepoints. Additionally you can provide it with a logical variable in the dataset which indicates the epidemic period.

Example adding epidemic period indicator

flu_ex <- flu_ex %>%
  mutate(epi = if_else(month(yrweek_dt)>=10 | month(yrweek_dt)<=5, T, F))  

flu_ex %>%
  filter(year>=2014)
#> # A tibble: 93 x 6
#>    year  week fludeaths  yrweek_dt prop_flupos   epi
#>   <int> <int>     <dbl>     <date>       <dbl> <lgl>
#> 1  2014     1  6.333333 2014-01-06   0.2806884  TRUE
#> 2  2014     2  8.933333 2014-01-13   0.3110651  TRUE
#> 3  2014     3  9.829060 2014-01-20   0.2910588  TRUE
#> 4  2014     4  9.058333 2014-01-27   0.2754467  TRUE
#> # ... with 89 more rows
…
## Fitted values + prediction interval
df_pred <- flu_ex_serfling %>%
  predict(base_fit, newdata=., se.fit=TRUE, 
          interval="prediction", level=0.95)

pred_y0 <- df_pred$fit[,1] #fitted values
pred_y0_uci <- df_pred$fit[,3] #95% UCI
pred_y0_serf <- df_pred$fit[,1] + 1.64*sd(df_pred$fit[,1]) 

df_base <- flu_ex %>%
  add_column(., pred_y0, pred_y0_uci, pred_y0_serf)  

df_base %>% select(year, week, fludeaths, 
                   pred_y0, pred_y0_uci, pred_y0_serf)  
#> # A tibble: 259 x 6
#>    year  week fludeaths  pred_y0 pred_y0_uci pred_y0_serf
#>   <int> <int>     <dbl>    <dbl>       <dbl>        <dbl>
#> 1  2010    42  6.482143 8.197778    9.940941     9.783488
#> 2  2010    43  6.605505 8.252288    9.956168     9.837998
#> 3  2010    44  6.779817 8.309852    9.978698     9.895562
#> 4  2010    45  6.581818 8.368915   10.006804     9.954625
#> # ... with 255 more rows
…
  mutate(threshold = if_else(fludeaths > pred_y0_serf, T, F),
         epidemic = if_else(threshold==T & lead(threshold)==T, T, NA),
         epidemic2 = if_else(lag(epidemic)==T & threshold==T, T, epidemic),
         epidemic3 = if_else(lag(epidemic2)==T & lead(threshold)==T, T, epidemic2),
         epidemic4 = if_else(lag(epidemic3)==T & threshold==T, T, epidemic3),
         epidemic5 = coalesce(epidemic4, F)) %>%
  rowwise() %>%
  mutate(epidemic = if_else(sum(epidemic, epidemic2, epidemic3, 
                                   epidemic4, epidemic5, na.rm=T)>0, T, F),
         excess = if_else(epidemic==T & (fludeaths - pred_y0_uci)>0, fludeaths - pred_y0_uci, 0))
df_epi %>% select(year, week, threshold, epidemic, excess)
#> Source: local data frame [259 x 5]
#> Groups: <by row>
#> 
#> # A tibble: 259 x 5
#>    year  week threshold epidemic excess
#>   <int> <int>     <lgl>    <lgl>  <dbl>
#> 1  2010    42     FALSE    FALSE      0
#> 2  2010    43     FALSE    FALSE      0
#> 3  2010    44     FALSE    FALSE      0
#> 4  2010    45     FALSE    FALSE      0
#> # ... with 255 more rows
…
