Serfling Model Background
…
In quantitative terms:

df_rpt <- df_mod_1_sec %>%
  dplyr::filter(fluyr==2014) %>%
  select(fluyr, week, fludeaths, pred_yhat_0, pred_yhat_upr) %>%
  rowwise() %>%
  mutate(excess_deaths = max(fludeaths - pred_yhat_upr, 0)) %>%
  round(., 0) 

head(df_rpt)
#> Source: local data frame [6 x 6]
#> Groups: <by row>
#> 
#> # A tibble: 6 x 6
#>   fluyr  week fludeaths pred_yhat_0 pred_yhat_upr excess_deaths
#>   <dbl> <dbl>     <dbl>       <dbl>         <dbl>         <dbl>
#> 1  2014    28       620         598           763             0
#> 2  2014    29       623         587           752             0
#> 3  2014    30       664         577           742             0
#> 4  2014    31       663         570           735             0
#> # ... with 2 more rows
…
The CDC also describes the threshold as:

“The seasonal baseline of P&I deaths is calculated using a periodic regression model that incorporates a robust regression procedure applied to data from the previous five years. An increase of 1.645 standard deviations > above the seasonal baseline of P&I deaths is considered the ‘epidemic threshold,’ i.e., the point at which the observed proportion of deaths attributed to pneumonia or influenza was significantly higher than would be expected at that time of the year in the absence of substantial influenza-related mortality.”

fluserf follows this method, but the modified serfling function allows for more options for threshold prediction. 1.645 standard deviations is equivalents to a one-sided upper limit 95% confidence interval.

fluserf() function

##The following command completes the above steps 
##fit serfling model
flu_fit <- fluserf(data=df_cdc, outc=perc_fludeaths, time=yrweek_dt)

head(flu_fit)
#> # A tibble: 6 x 15
#>    year  week fludeaths alldeaths perc_fludeaths yrweek_dt  fluyr
#>   <int> <int>     <int>     <int>          <dbl> <date>     <int>
#> 1  2010     1       960     13423           7.15 2010-01-03  2009
#> 2  2010     2      1026     13019           7.88 2010-01-10  2009
#> 3  2010     3       988     12046           8.20 2010-01-17  2009
#> 4  2010     4      1002     12466           8.04 2010-01-24  2009
#> # ... with 2 more rows, and 8 more variables: prop_flupos <dbl>,
#> #   week_in_order <int>, epi <lgl>, t <int>, sin_2 <dbl>, cos_2 <dbl>,
#> #   y0 <dbl>, y0_ul <dbl>
…
