An R Package for Estimating Attributable Influenza Morbidity and Mortality • flumodelr
…
This package relies heavily on the suite of packages and programming termed “Tidyverse”, e.g. “dplyr”, “lubridate”, that must be installed for proper functioning.

Usage

The primary goal of this package is to provide a toolkit for researchers who wish to estimate the attributable proportion of an outcome due to influenza morbidity and mortality. Conceptually this is achieved through estimating a baseline rate of the outcome in the absence of influenza, then using a measure of influenza endemicity to identify the marginal rate due to influenza morbidity. The particular measure of influenza endemicity and outcome being modelled is specified by the user.

Simple Example

Example data

fludta <- fludta
fludta

## # A tibble: 2,857 x 10
##     year  week fludeaths alldeaths perc_fludeaths yrweek_dt  fluyr
##    <int> <int>     <int>     <int>          <dbl> <date>     <int>
##  1  1962     1       646     13033           4.96 1961-12-31  1961
##  2  1962     2       663     13238           5.01 1962-01-07  1961
##  3  1962     3       701     13324           5.26 1962-01-14  1961
##  4  1962     4       646     13241           4.88 1962-01-21  1961
##  5  1962     5       614     13044           4.71 1962-01-28  1961
##  6  1962     6       609     13163           4.63 1962-02-04  1961
##  7  1962     7       646     12904           5.01 1962-02-11  1961
##  8  1962     8       668     12279           5.44 1962-02-18  1961
##  9  1962     9       702     13418           5.23 1962-02-25  1961
## 10  1962    10       623     13089           4.76 1962-03-04  1961
## # ... with 2,847 more rows, and 3 more variables: prop_flupos <dbl>,
## #   week_in_order <int>, epi <lgl>

Fit Traditional Serfling Model

flu_fit <- fluserf(fludta, outc = perc_fludeaths, time = yrweek_dt)

Assumes epidemic influenza period of Sept. - May. Fits a cyclical trend line, y0, along with an threshold limit for epidemicity, y0_ul.

flu_fit %>% select (year, week, perc_fludeaths, y0, y0_ul)

## # A tibble: 2,857 x 5
##     year  week perc_fludeaths    y0 y0_ul
##    <int> <int>          <dbl> <dbl> <dbl>
##  1  1962     1           4.96  2.60  2.78
##  2  1962     2           5.01  2.61  2.80
##  3  1962     3           5.26  2.62  2.82
##  4  1962     4           4.88  2.64  2.84
##  5  1962     5           4.71  2.65  2.86
##  6  1962     6           4.63  2.67  2.88
##  7  1962     7           5.01  2.68  2.90
##  8  1962     8           5.44  2.70  2.92
##  9  1962     9           5.23  2.72  2.94
## 10  1962    10           4.76  2.73  2.96
## # ... with 2,847 more rows
…
