flumodelr: Data • flumodelr
…
cdc122 <- (flumodelr::cdc122city)  
dim(cdc122)
#> [1] 346342      8
cdc122
#> # A tibble: 346,342 x 8
#>   region state   city  year  week deaths_pnaflu deaths_allcause
#>    <int> <chr>  <chr> <int> <int>         <int>           <int>
#> 1      1    MA Boston  1962     1            11             262
#> 2      1    MA Boston  1962     2            11             270
#> 3      1    MA Boston  1962     3             5             237
#> 4      1    MA Boston  1962     4            12             285
#> # ... with 346,338 more rows, and 1 more variables: deaths_65older <int>
…
Viral Surveillance — Data collection from both the U.S. World Health Organization (WHO) Collaborating Laboratories and National Respiratory and Enteric Virus Surveillance System (NREVSS) laboratories began during the 1997-98 season. The volume of tested specimens has greatly increased during this time due to increased participation and increased testing. During the 1997-98 season 43 state public health laboratories participated in surveillance, and by the 2004-05 season all state public health laboratories were participating in surveillance. The addition of NREVSS data during the 1997-98 season roughly doubled the amount of virologic data reported each week.

The number of specimens tested and % positive rate vary by region and season based on different testing practices including triaging of specimens by the reporting labs, therefore it is not appropriate to compare the magnitude of positivity rates or the number of positive specimens between regions or seasons.

The U.S. WHO and NREVSS collaborating laboratories report the total number of respiratory specimens tested and the number positive for influenza types A and B each week to CDC. Most of the U.S. WHO collaborating laboratories also report the influenza A subtype (H1 or H3) of the viruses they have isolated, but the majority of NREVSS laboratories do not report the influenza A subtype.

For more information on virologic surveillance please visit.
http://www.cdc.gov/flu/weekly/overview.htm#Viral

nrevss <- (flumodelr::nrevss)  
dim(nrevss)
#> [1] 14094    12
nrevss
#> # A tibble: 14,094 x 12
#>      state  year  week spec_tot spec_pos type_A_h1n1 type_A_h1 type_A_h3
#>      <chr> <int> <int>    <int>    <dbl>       <int>     <int>     <int>
#> 1  Alabama  2010    40       54      0.0           0         0         0
#> 2   Alaska  2010    40       40      0.0           0         0         0
#> 3  Arizona  2010    40       40      2.5           0         0         1
#> 4 Arkansas  2010    40       15      0.0           0         0         0
#> # ... with 14,090 more rows, and 4 more variables: type_A_np <int>,
#> #   type_A_us <int>, type_B <int>, type_A_h3n2 <int>
…
CDC Website Description

Outpatient Illness Surveillance — Information on patient visits to health care providers for influenza-like illness is collected through the U.S. Outpatient Influenza-like Illness Surveillance Network (ILINet). This collaborative effort between CDC, state and local health departments, and health care providers started during the 1997-98 influenza season when approximately 250 providers were enrolled. Enrollment in the system has increased over time and there were >3,000 providers enrolled during the 2010-11 season.

The number and percent of patients presenting with ILI each week will vary by region and season due to many factors, including having different provider type mixes (children present with higher rates of ILI than adults, and therefore regions with a higher percentage of pediatric practices will have higher numbers of cases). Therefore it is not appropriate to compare the magnitude of the percent of visits due to ILI between regions and seasons.

Baseline levels are calculated both nationally and for each region. Percentages at or above the baseline level are considered to be elevated.
http://www.cdc.gov/flu/weekly/overview.htm#Outpatient

ilinet <- (flumodelr::ilinet)  
dim(ilinet)
#> [1] 19556     7
ilinet
#> # A tibble: 19,556 x 7
#>      state  year  week ili_perc ili_tot providers patients
#>      <chr> <int> <int>    <dbl>   <int>     <int>    <int>
#> 1  Alabama  2010    40 2.134770     249        35    11664
#> 2   Alaska  2010    40 0.875146      15         7     1714
#> 3  Arizona  2010    40 0.674721     172        49    25492
#> 4 Arkansas  2010    40 0.696056      18        15     2586
#> # ... with 19,552 more rows
…
