Incidence rate-difference models • flumodelr
…
The initial function prepares the dataset by identifying periods of high and low viral activity in the respiratory season. It creates the table fludta_mod, adding 3 varables (columns): respiratory ‘season’, ‘high[,“prop_flupos”]’ (TRUE = high viral activity, FALSE = low viral activity), and ‘fluseason’ (TRUE = flu season, FALSE = summer-season baseline)

fludta_mod %>% select(year, week, alldeaths, 
                      prop_flupos, week, season, high, fluseason)
#> # A tibble: 261 x 7
#>    year  week alldeaths prop_flupos season high[,"prop_flupos"] fluseason
#>   <int> <int>     <int>       <dbl>  <dbl> <lgl>                <lgl>    
#> 1  2011     1     13291      0.239    2010 TRUE                 TRUE     
#> 2  2012     1     10906      0.0334   2011 FALSE                TRUE     
#> 3  2013     1     11258      0.374    2012 TRUE                 TRUE     
#> 4  2014     1     11070      0.281    2013 TRUE                 TRUE     
#> # ... with 257 more rows

Note that ‘high[,“prop_flupos”]’ will not be created if ird(viral= missing).

Step 2. rb() function

fludta_rates <- rb(data =fludta_mod, outc =alldeaths, echo = T)
#> Setting rb parameters...
#>  'outc' argument is: alldeaths

The rb() function aggregates the outcomes per time period (weeks in our example) to outcomes per respiratory season, stratified by period of high and low viral activity, and excess rates (period = “High” - period = “Low”).

fludta_rates
#> # A tibble: 18 x 4
#>   season period alldeaths_fluseason alldeaths_viral_act
#>    <dbl> <fct>                <dbl>               <dbl>
#> 1   2010 Excess               1133.               1172.
#> 2   2010 Low                 10982.              11046.
#> 3   2010 High                12116.              12218.
#> 4   2011 Excess                519.                155.
#> # ... with 14 more rows
…
