Modified Serfling Models • flumodelr
…
The original model can be modified like so:

\[Eq \ 1. \  y = \alpha_0 + \beta_1*t + \beta_2*Flu_t + sin(\frac{2 \pi t}{period}) + cos(\frac{2 \pi t}{period}) + u\] Where Flu = no. of isolates positive for influenza / total isolates tested in a given timepoint t. period is a fixed parameter equal to the cycle of the time unit (e.g. 52 weeks in a year).

Many published examples of this exist [@Wang2012, @Matias2016]. Some authors include data on the % RSV (+), as well as breakdown influenza by subtype and even include data on weather, humidity etc. Including individual terms for each viral subtype may have advantages as certain types of influenza are associated with more severe outcomes such as hospitalization and death.

flum()

A general wrapper, flum(), for modeling time-series data is written for this purpose. This will compute a traditional serfling model or other generalized linear models, a smoothed model (adds polynomial terms), a model which allows for virology data, and other options explored below.

Influenza data

head(df_cdc)
#> # A tibble: 6 x 10
#>    year  week fludeaths alldeaths perc_fludeaths yrweek_dt  fluyr
#>   <int> <int>     <int>     <int>          <dbl> <date>     <int>
#> 1  2010     1       960     13423           7.15 2010-01-03  2009
#> 2  2010     2      1026     13019           7.88 2010-01-10  2009
#> 3  2010     3       988     12046           8.20 2010-01-17  2009
#> 4  2010     4      1002     12466           8.04 2010-01-24  2009
#> # ... with 2 more rows, and 3 more variables: prop_flupos <dbl>,
#> #   week_in_order <int>, epi <lgl>
…
Here we predict the outcome for each observation, given the fitted model base_fit above. We tell R to compute 95% prediction intervals. This is conventional for most modern approaches, see [insert cites]. The original Serfling paper estimated a threshold 1.64 standard deviations above the trend line.

base_pred <- df_cdc_2 %>%
  mutate(prop_flupos = 0) %>% #Note setting to zero
  predict(base_fit, newdata=., se.fit=TRUE, 
          interval="prediction", level=0.90)

Critically, before predicting observations, we set the measure of our influenza activity, prop_flupos to zero. This is to estimate the influenza activity at each timepoint, assuming that the proportion of influenza isolates was equal to zero.

Add fitted values to dataset

fludta_fitted <- df_cdc_2 %>%
  add_column(., y0=base_pred$fit[,1], y0_ul=base_pred$fit[,3]) 
head(fludta_fitted)
#> # A tibble: 6 x 20
#>    year  week fludeaths alldeaths perc_fludeaths yrweek_dt  fluyr
#>   <int> <int>     <int>     <int>          <dbl> <date>     <int>
#> 1  2010     1       960     13423           7.15 2010-01-03  2009
#> 2  2010     2      1026     13019           7.88 2010-01-10  2009
#> 3  2010     3       988     12046           8.20 2010-01-17  2009
#> 4  2010     4      1002     12466           8.04 2010-01-24  2009
#> # ... with 2 more rows, and 13 more variables: prop_flupos <dbl>,
#> #   week_in_order <int>, epi <lgl>, t <int>, theta <dbl>, sin_2 <dbl>,
#> #   cos_2 <dbl>, week_2 <dbl>, week_3 <dbl>, week_4 <dbl>, week_5 <dbl>,
#> #   y0 <dbl>, y0_ul <dbl>
…
This model differs from the original Serfling regressions because of it’s use of influenza virology to generate a counterfactual vs. using an off-season secular trend.

Compute attributable mortality

Excess mortality

You can either report the deaths in excess of the one-sided 95% prediction interval, which are sometimes described as epidemics or severe periods of influenza morbidity and mortality.

df_excess <- fludiff(fludta_fitted, obsvar=perc_fludeaths, fitvar=y0_ul)
df_excess %>%
  head(.)
#> # A tibble: 6 x 21
#>    year  week fludeaths alldeaths perc_fludeaths yrweek_dt  fluyr
#>   <int> <int>     <int>     <int>          <dbl> <date>     <int>
#> 1  2010     1       960     13423           7.15 2010-01-03  2009
#> 2  2010     2      1026     13019           7.88 2010-01-10  2009
#> 3  2010     3       988     12046           8.20 2010-01-17  2009
#> 4  2010     4      1002     12466           8.04 2010-01-24  2009
#> # ... with 2 more rows, and 14 more variables: prop_flupos <dbl>,
#> #   week_in_order <int>, epi <lgl>, t <int>, theta <dbl>, sin_2 <dbl>,
#> #   cos_2 <dbl>, week_2 <dbl>, week_3 <dbl>, week_4 <dbl>, week_5 <dbl>,
#> #   y0 <dbl>, y0_ul <dbl>, y_diff <dbl>
…
Attributable influenza mortality

Alternatively, you can simply take the excess deaths above the predicted line and report these as deaths attributable to influenza. Since they are in excess of the predicted deaths in the absence of influenza (i.e. no influenza positive isolates).

df_excess <- fludiff(fludta_fitted, obsvar=perc_fludeaths, fitvar=y0)
df_excess %>%
  head(.)
#> # A tibble: 6 x 21
#>    year  week fludeaths alldeaths perc_fludeaths yrweek_dt  fluyr
#>   <int> <int>     <int>     <int>          <dbl> <date>     <int>
#> 1  2010     1       960     13423           7.15 2010-01-03  2009
#> 2  2010     2      1026     13019           7.88 2010-01-10  2009
#> 3  2010     3       988     12046           8.20 2010-01-17  2009
#> 4  2010     4      1002     12466           8.04 2010-01-24  2009
#> # ... with 2 more rows, and 14 more variables: prop_flupos <dbl>,
#> #   week_in_order <int>, epi <lgl>, t <int>, theta <dbl>, sin_2 <dbl>,
#> #   cos_2 <dbl>, week_2 <dbl>, week_3 <dbl>, week_4 <dbl>, week_5 <dbl>,
#> #   y0 <dbl>, y0_ul <dbl>, y_diff <dbl>
…
Examples with flum()

Incidence-Rate Difference (Simplest model)

fludta_mod <- flum(df_cdc_2, model="ird", 
                   outc=perc_fludeaths, time=yrweek_dt,
                   viral=prop_flupos)

head(fludta_mod)
#> # A tibble: 6 x 21
#>    year  week fludeaths alldeaths perc_fludeaths yrweek_dt  fluyr
#>   <int> <int>     <int>     <int>          <dbl> <date>     <int>
#> 1  2010     1       960     13423           7.15 2010-01-03  2009
#> 2  2010     2      1026     13019           7.88 2010-01-10  2009
#> 3  2010     3       988     12046           8.20 2010-01-17  2009
#> 4  2010     4      1002     12466           8.04 2010-01-24  2009
#> # ... with 2 more rows, and 14 more variables: prop_flupos <dbl>,
#> #   week_in_order <int>, epi <lgl>, t <int>, theta <dbl>, sin_2 <dbl>,
#> #   cos_2 <dbl>, week_2 <dbl>, week_3 <dbl>, week_4 <dbl>, week_5 <dbl>,
#> #   season <dbl>, high[,"prop_flupos"] <lgl>, fluseason <lgl>

original serfling model

fludta_mod <- flum(df_cdc_2, model="fluserf", 
                   outc=perc_fludeaths, time=yrweek_dt)

fludta_mod %>% 
  select(year, week, perc_fludeaths, y0, y0_ul) %>%
  head()
#> # A tibble: 6 x 5
#>    year  week perc_fludeaths    y0 y0_ul
#>   <int> <int>          <dbl> <dbl> <dbl>
#> 1  2010     1           7.15  7.36  7.84
#> 2  2010     2           7.88  7.41  7.90
#> 3  2010     3           8.20  7.45  7.95
#> 4  2010     4           8.04  7.49  8.00
#> # ... with 2 more rows
…
Other options

If excluding the polynomial terms is desired:

## Without polynomial terms
flum(df_cdc_2, model="fluglm", 
     outc=fludeaths, time=week_in_order, 
     viral = "prop_flupos", poly=F)
#> # A tibble: 313 x 6
#>   flu_pred flu_pred_upr flu_pred_lwr flu_base flu_base_upr flu_base_lwr
#>      <dbl>        <dbl>        <dbl>    <dbl>        <dbl>        <dbl>
#> 1       NA           NA           NA     799.         839.         759.
#> 2       NA           NA           NA     809.         850.         769.
#> 3       NA           NA           NA     818.         859.         776.
#> 4       NA           NA           NA     825.         867.         783.
#> # ... with 309 more rows

Perform a seasonal baseline model using Sept - May as season-period.

## Epidemic period, non-specified
flum(df_cdc_2, model="fluglm", 
     outc=fludeaths, time=t, 
     season=T)
#> Warning in predict.lm(object, newdata, se.fit, scale = residual.scale, type
#> = if (type == : prediction from a rank-deficient fit may be misleading
#> # A tibble: 313 x 6
#>   flu_pred flu_pred_upr flu_pred_lwr flu_base flu_base_upr flu_base_lwr
#>      <dbl>        <dbl>        <dbl>    <dbl>        <dbl>        <dbl>
#> 1     885.         944.         826.   10572.          NaN          NaN
#> 2     900.         955.         844.    6714.          NaN          NaN
#> 3     912.         965.         860.    4003.          NaN          NaN
#> 4     923.         972.         874.    2258.          NaN          NaN
#> # ... with 309 more rows

Identify your own epidemic period, then call flum() to use it. Season is default NULL, but if a named variable in fludta_mod, the model will search for and use it as the baseline.

## Epidemic period specified
fludta_mod <- ird(data=df_cdc_2, 
               outc = perc_fludeaths, viral=prop_flupos, time=t)

flum(data=fludta_mod, model="fluglm", outc=fludeaths, time=t, 
       season=high) %>%
  head(.)
#> # A tibble: 6 x 6
#>   flu_pred flu_pred_upr flu_pred_lwr flu_base flu_base_upr flu_base_lwr
#>      <dbl>        <dbl>        <dbl>    <dbl>        <dbl>        <dbl>
#> 1     885.         944.         826.     800.        1144.         456.
#> 2     900.         955.         844.     811.        1141.         481.
#> 3     912.         965.         860.     820.        1137.         504.
#> 4     923.         972.         874.     829.        1133.         525.
#> # ... with 2 more rows

You can pass arguments to the glm() call, like specifying a Poisson model.

## Poisson model with offset term
flum(df_cdc_2, 
     model="fluglm", outc = fludeaths, 
     time = t, season=T, 
     family=poisson, offset=log(alldeaths)) %>%
  head(.)
#> Warning in predict.lm(object, newdata, se.fit, scale = residual.scale, type
#> = if (type == : prediction from a rank-deficient fit may be misleading
#> # A tibble: 6 x 6
#>   flu_pred flu_pred_upr flu_pred_lwr flu_base  flu_base_upr flu_base_lwr
#>      <dbl>        <dbl>        <dbl>    <dbl>         <dbl>        <dbl>
#> 1     983.        1002.         965. 6220596. 239874786810.         161.
#> 2     969.         986.         952.  185769.    105602520.         327.
#> 3     910.         925.         895.   15012.       446363.         505.
#> 4     953.         968.         938.    3259.        14674.         724.
#> # ... with 2 more rows

A negative binomial model can be called from the MASS::glm.nb function using glmnb=T option. The output is the same.

## Negative binomial model with offset term
flum(df_cdc_2, 
     model="fluglm", outc = fludeaths, 
     time = t, viral='prop_flupos',
     glmnb = T) %>%
head(.)
#> # A tibble: 6 x 6
#>   flu_pred flu_pred_upr flu_pred_lwr flu_base flu_base_upr flu_base_lwr
#>      <dbl>        <dbl>        <dbl>    <dbl>        <dbl>        <dbl>
#> 1       NA           NA           NA     534.         982.         291.
#> 2       NA           NA           NA     551.         990.         307.
#> 3       NA           NA           NA     568.         997.         323.
#> 4       NA           NA           NA     583.        1001.         339.
#> # ... with 2 more rows
…
