fluglm: Generate fitted prediction values with generalized linear model. — fluglm â€¢ flumodelr
…
    Thompson WW1, Weintraub E, Dhankhar P, Cheng PY, Brammer L,
Meltzer MI, Bresee JS, Shay DK. Estimates of US influenza-associated
deaths made using four different methods. Influenza Other Respir
Viruses. 2009 Jan;3(1):37-49.
/urlhttps://www.ncbi.nlm.nih.gov/pubmed/19453440

    Examples

require(flumodelr)
fludta <- flumodelr::fludta
flu_fit <- fluglm(fludta, outc = fludeaths, time = yrweek_dt)

head(flu_fit)
#> # A tibble: 6 x 10
#>    year  week fludeaths alldeaths perc_fl~ yrweek_dt  prop_f~ epi      y0 y0_ul
#>   <int> <int>     <int>     <int>    <dbl> <date>       <dbl> <lgl> <dbl> <dbl>
#> 1  2010    42       726     11269     6.44 2010-10-17  0.0133 T       805   946
#> 2  2010    43       720     11204     6.43 2010-10-24  0.0193 T       815   951
#> 3  2010    44       739     11115     6.65 2010-10-31  0.0173 T       826   958
#> 4  2010    45       724     10321     7.01 2010-11-07  0.0231 T       838   966
#> # ... with 2 more rows
…
