ird: Perform incidence rate-difference models — ird • flumodelr
…
    Thompson WW, Weintraub E, Dhankhar P, Cheng PY, Brammer L,
Meltzer MI, Bresee JS, Shay DK. Estimates of US influenza‐associated
deaths made using four different methods. Influenza and other
respiratory viruses. 2009 Jan 1;3(1):37-49.
/urlhttp://onlinelibrary.wiley.com/doi/10.1111/j.1750-2659.2009.00073.x/full

    Examples

require(flumodelr)
fludta <- flumodelr::fludta
flu_fit <- ird(data=fludta, viral=prop_flupos, time=yrweek_dt)
flu_rates <- rb(flu_fit, perc_fludeaths)

flu_rates
#> # A tibble: 166 x 4
#>    season period perc_fludeaths_fluseason perc_fludeaths_viral_act
#>     <dbl> <fct>                     <dbl>                    <dbl>
#>  1   1961 Excess                    1.13                        NA
#>  2   1961 Low                       3.63                        NA
#>  3   1961 High                      4.75                        NA
#>  4   1962 Excess                    1.45                        NA
#>  5   1962 Low                       3.33                        NA
#>  6   1962 High                      4.78                        NA
#>  7   1963 Excess                    0.781                       NA
#>  8   1963 Low                       3.49                        NA
#>  9   1963 High                      4.27                        NA
#> 10   1964 Excess                    0.997                       NA
#> # ... with 156 more rows
…
