serflm: Fit a Serling Model on Time Series Data — serflm â€¢ flumodelr
…
    References

    Serfling RE. Methods for current statistical analysis of
excess pneumonia-influenza deaths. Public Health Rep. 1963 Jun;
78(6): 494 - 506.
/urlhttps://www.ncbi.nlm.nih.gov/pmc/articles/PMC1915276/

    Examples

require(flumodelr)
flu_ex <- flumodelr::flu_ex
flu_fit <- serflm(flu_ex, outc = fludeaths, time = yrweek_dt)

head(flu_fit)
#> # A tibble: 6 x 8
#>    year  week fludeaths  yrweek_dt prop_flupos   epi       y0    y0_ul
#>   <int> <int>     <dbl>     <date>       <dbl> <lgl>    <dbl>    <dbl>
#> 1  2010    42  6.482143 2010-10-18  0.01331601  TRUE 6.325176 7.419003
#> 2  2010    43  6.605505 2010-10-25  0.01928211  TRUE 6.415187 7.509014
#> 3  2010    44  6.779817 2010-11-01  0.01726122  TRUE 6.507871 7.601698
#> 4  2010    45  6.581818 2010-11-08  0.02305556  TRUE 6.601823 7.695650
#> # ... with 2 more rows
…
